{
  "members":[
    {
      "name":"Dave Smith",
      "job":"Guitar, Effects, Vocals",
      "text":"I sing and im dooing stuff on stage",
      "imgUrl":"images/members/dummy.jpg"
    },
    {
      "name":"Pete Smithey",
      "job":"Guitar, Effects, Vocals",
      "text":"me too and i also like beer and chicks",
      "imgUrl":"images/members/dummy.jpg"
    },
    {
      "name":"Johnny Smithson",
      "job":"Bass",
      "text":"I like to grooove and other things that keep rythm especially Jack",
      "imgUrl":"images/members/dummy.jpg"
    },
    {
      "name":"Jack Smithers",
      "job":"Drums",
      "text":"I´m soooo tired but I keep drummin...",
      "imgUrl":"images/members/dummy.jpg"
    }
  ],
  "gigs":[
    {
      "date":"1.1.2016",
      "name":"Gig One",
      "location":"Dummylocation",
      "pricing":"5",
      "link":""
    },
    {
      "date":"2.1.2016",
      "name":"Gig Two",
      "location":"Dummylocation",
      "pricing":"5",
      "link":""
    },
    {
      "date":"3.1.2016",
      "name":"Gig Three",
      "location":"Dummylocation",
      "pricing":"5",
      "link":""
    },
    {
      "date":"4.1.2016",
      "name":"Gig Four",
      "location":"Dummylocation",
      "pricing":"5",
      "link":""
    }
  ],
  "pictures":[
    {
    	"imgUrl":""
    }
  ],
  "songs":[
    {
    	"url":"music/sidewalk.mp3",
    	"title":"Madtones - Sidewalk"
    },
    {
    	"url":"music/Freedom.mp3",
    	"title":"Madtones - Freedom"
    },
    {
    	"url":"music/winter.mp3",
    	"title":"Madtones - Winter"
    },
    {
    	"url":"music/night cruise.mp3",
    	"title":"Madtones - Night Cruise"
    },
    {
    	"url":"music/i no send you.mp3",
    	"title":"Madtones - I No Send You"
    },
    {
    	"url":"music/funky.mp3",
    	"title":"Madtones - Funky"
    },
    {
    	"url":"music/toledo.mp3",
    	"title":"Madtones - Toledo"
    },
    {
    	"url":"music/waves.mp3",
    	"title":"Madtones - Waves"
    },
    {
    	"url":"music/departed beat.mp3",
    	"title":"Madtones - Departed"
    },
    {
    	"url":"music/monks.mp3",
    	"title":"Madtones - Monks"
    },
    {
    	"url":"music/beginner.mp3",
    	"title":"Madtones - Morgen Freeman Rmx. (Absolute Beginner)"
    },
    {
    	"url":"music/chill hop to blues.mp3",
    	"title":"Madtones - Chill Hop To Blues"
    },
    {
    	"url":"music/no way out.mp3",
    	"title":"Madtones - No Way Out"
    },
    {
    	"url":"music/Mad Tone.mp3",
    	"title":"Madtones - Mad Tone"
    },
    {
    	"url":"music/World on Fire.mp3",
    	"title":"Madtones - World On Fire"
    },
    {
    	"url":"music/going down.mp3",
    	"title":"Madtones - Going Down"
    },
    {
    	"url":"music/birds.mp3",
    	"title":"Madtones - Birds"
    }
  ],
  "links":[
    {
      "url":"https://www.facebook.com/madtonesmusic",
      "imgUrl":"images/theme/icons/facebook.svg"
    },
    {
      "url":"https://soundcloud.com/madtones",
      "imgUrl":"images/theme/icons/soundcloud.svg"
    }
  ],
  "bandName":"bandkit",
  "bandText":"bandKit is a easy to use framework for building band websites. Content is easily inserted and hosted. You just need your own domain and band content and you are ready to go. This could be your bio text. Just contact me for more information.",
  "genre":"testgenre",
  "email":"info@bandkit.de"
}
